HW4_structural/simulation/qsim/structural_mux.msim.vcd
$comment
	File created using the following command:
		vcd file structural_mux.msim.vcd -direction
$end
$date
	Tue Apr 07 18:45:34 2020
$end
$version
	ModelSim Version 10.1d
$end
$timescale
	1ps
$end
$scope module structural_mux_vlg_vec_tst $end
$var reg 8 ! s [7:0] $end
$var reg 3 " sel [2:0] $end
$var wire 1 # out $end
$var wire 1 $ sampler $end
$scope module i1 $end
$var wire 1 % gnd $end
$var wire 1 & vcc $end
$var wire 1 ' unknown $end
$var tri1 1 ( devclrn $end
$var tri1 1 ) devpor $end
$var tri1 1 * devoe $end
$var wire 1 + or_output~0_combout $end
$var wire 1 , or_output~1_combout $end
$var wire 1 - or_output~2_combout $end
$var wire 1 . or_output~4_combout $end
$var wire 1 / or_output~3_combout $end
$var wire 1 0 or_output~5_combout $end
$var wire 1 1 sel~combout [2] $end
$var wire 1 2 sel~combout [1] $end
$var wire 1 3 sel~combout [0] $end
$var wire 1 4 s~combout [7] $end
$var wire 1 5 s~combout [6] $end
$var wire 1 6 s~combout [5] $end
$var wire 1 7 s~combout [4] $end
$var wire 1 8 s~combout [3] $end
$var wire 1 9 s~combout [2] $end
$var wire 1 : s~combout [1] $end
$var wire 1 ; s~combout [0] $end
$upscope $end
$upscope $end
$enddefinitions $end
#0
$dumpvars
b1 !
b0 "
1#
x$
0%
1&
x'
1(
1)
1*
1+
0,
1-
0.
0/
10
03
02
01
1;
0:
09
08
07
06
05
04
$end
#20000
b0 !
0;
0$
0+
0-
00
0#
#40000
b1 "
b10 !
1:
13
1$
1,
1-
10
1#
#60000
b0 !
0:
0$
0,
0-
00
0#
#80000
b11 "
b100 !
b10 "
19
03
12
1$
1/
10
1#
#100000
b0 !
09
0$
0/
00
0#
#120000
b1000 !
b11 "
13
18
1$
1.
10
1#
#140000
b0 !
08
0$
0.
00
0#
#160000
b111 "
b10000 !
b101 "
b100 "
17
03
02
11
1$
1+
1-
10
1#
#180000
b0 !
07
0$
0+
0-
00
0#
#200000
b100000 !
b101 "
13
16
1$
1,
1-
10
1#
#220000
b0 !
06
0$
0,
0-
00
0#
#240000
b1000000 !
b111 "
b110 "
03
12
15
1$
1/
10
1#
#260000
b0 !
05
0$
0/
00
0#
#280000
b10000000 !
b111 "
13
14
1$
1.
10
1#
#300000
b0 !
04
0$
0.
00
0#
#320000
b11 "
b1 "
b0 "
03
02
01
1$
#360000
b1 "
13
0$
#400000
b11 "
b10 "
03
12
1$
#440000
b11 "
13
0$
#480000
b111 "
b101 "
b100 "
03
02
11
1$
#520000
b101 "
13
0$
#560000
b111 "
b110 "
03
12
1$
#600000
b111 "
13
0$
#640000
b11 "
b1 "
b0 "
03
02
01
1$
#680000
b1 "
13
0$
#720000
b11 "
b10 "
03
12
1$
#760000
b11 "
13
0$
#800000
b111 "
b101 "
b100 "
03
02
11
1$
#840000
b101 "
13
0$
#880000
b111 "
b110 "
03
12
1$
#920000
b111 "
13
0$
#960000
b11 "
b1 "
b0 "
03
02
01
1$
