clock_divider/simulation/qsim/clock_divider.msim.vcd
$comment
	File created using the following command:
		vcd file clock_divider.msim.vcd -direction
$end
$date
	Wed Jun 03 22:29:13 2020
$end
$version
	ModelSim Version 10.1d
$end
$timescale
	1ps
$end
$scope module clock_divider_vlg_vec_tst $end
$var reg 1 ! clk $end
$var reg 1 " rst $end
$var wire 1 # clk1 $end
$var wire 1 $ clk2 $end
$var wire 1 % clk3 $end
$var wire 1 & clk4 $end
$var wire 1 ' sampler $end
$scope module i1 $end
$var wire 1 ( gnd $end
$var wire 1 ) vcc $end
$var wire 1 * unknown $end
$var tri1 1 + devclrn $end
$var tri1 1 , devpor $end
$var tri1 1 - devoe $end
$var wire 1 . Add0~4_combout $end
$var wire 1 / Add1~9_combout $end
$var wire 1 0 Add1~13_combout $end
$var wire 1 1 Add1~20 $end
$var wire 1 2 Add1~21_combout $end
$var wire 1 3 Add2~14_combout $end
$var wire 1 4 count[0]~10_combout $end
$var wire 1 5 count[2]~14_combout $end
$var wire 1 6 count[7]~24_combout $end
$var wire 1 7 Add0~24_combout $end
$var wire 1 8 count2[3]~1_combout $end
$var wire 1 9 count2[9]~2_combout $end
$var wire 1 : count2[5]~6_combout $end
$var wire 1 ; count1[7]~4_combout $end
$var wire 1 < count1[7]~5_combout $end
$var wire 1 = clk~combout $end
$var wire 1 > clk~clkctrl_outclk $end
$var wire 1 ? Add1~0_combout $end
$var wire 1 @ Add1~8_combout $end
$var wire 1 A rst~combout $end
$var wire 1 B count[0]~11 $end
$var wire 1 C count[1]~12_combout $end
$var wire 1 D rst~clkctrl_outclk $end
$var wire 1 E count[1]~13 $end
$var wire 1 F count[2]~15 $end
$var wire 1 G count[3]~17 $end
$var wire 1 H count[4]~19 $end
$var wire 1 I count[5]~20_combout $end
$var wire 1 J count[5]~21 $end
$var wire 1 K count[6]~22_combout $end
$var wire 1 L count[6]~23 $end
$var wire 1 M count[7]~25 $end
$var wire 1 N count[8]~26_combout $end
$var wire 1 O count[8]~27 $end
$var wire 1 P count[9]~28_combout $end
$var wire 1 Q count[4]~18_combout $end
$var wire 1 R count[3]~16_combout $end
$var wire 1 S LessThan3~0_combout $end
$var wire 1 T LessThan3~1_combout $end
$var wire 1 U Add2~1 $end
$var wire 1 V Add2~2_combout $end
$var wire 1 W Add2~21_combout $end
$var wire 1 X Add0~0_combout $end
$var wire 1 Y Add0~21_combout $end
$var wire 1 Z count3[9]~4_combout $end
$var wire 1 [ Add0~1 $end
$var wire 1 \ Add0~2_combout $end
$var wire 1 ] Add0~20_combout $end
$var wire 1 ^ Add0~3 $end
$var wire 1 _ Add0~5 $end
$var wire 1 ` Add0~7 $end
$var wire 1 a Add0~9 $end
$var wire 1 b Add0~11 $end
$var wire 1 c Add0~13 $end
$var wire 1 d Add0~14_combout $end
$var wire 1 e count3[7]~3_combout $end
$var wire 1 f Add0~15 $end
$var wire 1 g Add0~16_combout $end
$var wire 1 h count3[9]~0_combout $end
$var wire 1 i count3[8]~2_combout $end
$var wire 1 j Add0~17 $end
$var wire 1 k Add0~18_combout $end
$var wire 1 l count3[9]~1_combout $end
$var wire 1 m Add0~12_combout $end
$var wire 1 n count3[6]~5_combout $end
$var wire 1 o Add0~10_combout $end
$var wire 1 p count3[5]~6_combout $end
$var wire 1 q Add0~8_combout $end
$var wire 1 r Add0~22_combout $end
$var wire 1 s Add0~6_combout $end
$var wire 1 t Add0~23_combout $end
$var wire 1 u LessThan0~0_combout $end
$var wire 1 v LessThan0~1_combout $end
$var wire 1 w LessThan0~2_combout $end
$var wire 1 x clk3~0_combout $end
$var wire 1 y count1[9]~8_combout $end
$var wire 1 z Add2~3 $end
$var wire 1 { Add2~4_combout $end
$var wire 1 | Add2~20_combout $end
$var wire 1 } Add2~5 $end
$var wire 1 ~ Add2~6_combout $end
$var wire 1 !! count1[3]~11_combout $end
$var wire 1 "! count1[3]~12_combout $end
$var wire 1 #! Add2~7 $end
$var wire 1 $! Add2~9 $end
$var wire 1 %! Add2~10_combout $end
$var wire 1 &! count1[5]~13_combout $end
$var wire 1 '! count1[5]~14_combout $end
$var wire 1 (! Add2~11 $end
$var wire 1 )! Add2~12_combout $end
$var wire 1 *! count1[6]~6_combout $end
$var wire 1 +! count1[6]~7_combout $end
$var wire 1 ,! Add2~13 $end
$var wire 1 -! Add2~15 $end
$var wire 1 .! Add2~17 $end
$var wire 1 /! Add2~18_combout $end
$var wire 1 0! count1[9]~0_combout $end
$var wire 1 1! count1[9]~1_combout $end
$var wire 1 2! Add2~16_combout $end
$var wire 1 3! count1[8]~2_combout $end
$var wire 1 4! count1[8]~3_combout $end
$var wire 1 5! LessThan2~0_combout $end
$var wire 1 6! Add2~0_combout $end
$var wire 1 7! Add2~22_combout $end
$var wire 1 8! Add2~8_combout $end
$var wire 1 9! count1[4]~9_combout $end
$var wire 1 :! count1[4]~10_combout $end
$var wire 1 ;! LessThan2~1_combout $end
$var wire 1 <! LessThan2~2_combout $end
$var wire 1 =! count2[9]~0_combout $end
$var wire 1 >! Add1~1 $end
$var wire 1 ?! Add1~2_combout $end
$var wire 1 @! Add1~7_combout $end
$var wire 1 A! Add1~3 $end
$var wire 1 B! Add1~4_combout $end
$var wire 1 C! Add1~6_combout $end
$var wire 1 D! Add1~5 $end
$var wire 1 E! Add1~10 $end
$var wire 1 F! Add1~11_combout $end
$var wire 1 G! count2[4]~7_combout $end
$var wire 1 H! LessThan1~0_combout $end
$var wire 1 I! Add1~12 $end
$var wire 1 J! Add1~14 $end
$var wire 1 K! Add1~15_combout $end
$var wire 1 L! count2[6]~5_combout $end
$var wire 1 M! Add1~16 $end
$var wire 1 N! Add1~17_combout $end
$var wire 1 O! count2[7]~4_combout $end
$var wire 1 P! Add1~18 $end
$var wire 1 Q! Add1~19_combout $end
$var wire 1 R! count2[8]~3_combout $end
$var wire 1 S! LessThan1~1_combout $end
$var wire 1 T! LessThan1~2_combout $end
$var wire 1 U! clk1~0_combout $end
$var wire 1 V! clk1~1_combout $end
$var wire 1 W! clk1~reg0_regout $end
$var wire 1 X! clk2~0_combout $end
$var wire 1 Y! clk2~reg0_regout $end
$var wire 1 Z! clk3~1_combout $end
$var wire 1 [! clk3~reg0_regout $end
$var wire 1 \! clk4~0_combout $end
$var wire 1 ]! clk4~reg0_regout $end
$var wire 1 ^! count3 [9] $end
$var wire 1 _! count3 [8] $end
$var wire 1 `! count3 [7] $end
$var wire 1 a! count3 [6] $end
$var wire 1 b! count3 [5] $end
$var wire 1 c! count3 [4] $end
$var wire 1 d! count3 [3] $end
$var wire 1 e! count3 [2] $end
$var wire 1 f! count3 [1] $end
$var wire 1 g! count3 [0] $end
$var wire 1 h! count2 [9] $end
$var wire 1 i! count2 [8] $end
$var wire 1 j! count2 [7] $end
$var wire 1 k! count2 [6] $end
$var wire 1 l! count2 [5] $end
$var wire 1 m! count2 [4] $end
$var wire 1 n! count2 [3] $end
$var wire 1 o! count2 [2] $end
$var wire 1 p! count2 [1] $end
$var wire 1 q! count2 [0] $end
$var wire 1 r! count1 [9] $end
$var wire 1 s! count1 [8] $end
$var wire 1 t! count1 [7] $end
$var wire 1 u! count1 [6] $end
$var wire 1 v! count1 [5] $end
$var wire 1 w! count1 [4] $end
$var wire 1 x! count1 [3] $end
$var wire 1 y! count1 [2] $end
$var wire 1 z! count1 [1] $end
$var wire 1 {! count1 [0] $end
$var wire 1 |! count [9] $end
$var wire 1 }! count [8] $end
$var wire 1 ~! count [7] $end
$var wire 1 !" count [6] $end
$var wire 1 "" count [5] $end
$var wire 1 #" count [4] $end
$var wire 1 $" count [3] $end
$var wire 1 %" count [2] $end
$var wire 1 &" count [1] $end
$var wire 1 '" count [0] $end
$upscope $end
$upscope $end
$enddefinitions $end
#0
$dumpvars
0!
1"
0#
0$
0%
0&
x'
0(
1)
x*
1+
1,
1-
0.
0/
00
01
02
03
14
05
06
07
08
09
0:
0;
0<
0=
0>
1?
1@
1A
0B
0C
1D
1E
0F
1G
0H
0I
1J
0K
0L
1M
0N
0O
0P
0Q
0R
1S
1T
0U
0V
0W
1X
1Y
0Z
0[
0\
0]
1^
0_
1`
0a
1b
0c
0d
0e
1f
0g
0h
0i
0j
0k
0l
0m
0n
0o
0p
0q
0r
0s
0t
1u
0v
1w
1x
0y
1z
0{
0|
0}
0~
0!!
0"!
1#!
0$!
0%!
0&!
0'!
1(!
0)!
0*!
0+!
0,!
1-!
0.!
0/!
00!
01!
02!
03!
04!
15!
16!
17!
08!
09!
0:!
1;!
1<!
0=!
0>!
0?!
0@!
1A!
0B!
0C!
0D!
1E!
0F!
0G!
1H!
0I!
1J!
0K!
0L!
0M!
0N!
0O!
1P!
0Q!
0R!
1S!
1T!
0U!
0V!
0W!
0X!
0Y!
0Z!
0[!
0\!
0]!
0g!
0f!
0e!
0d!
0c!
0b!
0a!
0`!
0_!
0^!
0q!
0p!
0o!
0n!
0m!
0l!
0k!
0j!
0i!
0h!
0{!
0z!
0y!
0x!
0w!
0v!
0u!
0t!
0s!
0r!
0'"
0&"
0%"
0$"
0#"
0""
0!"
0~!
0}!
0|!
$end
#10
1!
1=
1>
0'
1'"
1B
04
1C
#20
0!
0=
0>
1'
#30
1!
1=
1>
0'
1&"
0'"
0E
0C
0B
14
15
1E
1C
05
#40
0!
0=
0>
1'
#50
1!
1=
1>
0'
1'"
1B
04
0E
0C
15
#60
0!
0=
0>
1'
#70
1!
1=
1>
0'
0&"
0'"
1%"
1E
1C
0B
14
1F
05
0F
15
0C
1R
0R
#80
0!
0=
0>
1'
#90
1!
1=
1>
0'
1'"
1B
04
1C
#100
0!
0=
0>
1'
#110
1!
1=
1>
0'
1&"
0'"
0E
0C
0B
14
1F
05
1E
1C
1R
0F
15
0R
#120
0!
0=
0>
1'
#130
1!
1=
1>
0'
1'"
1B
04
0E
0C
1F
05
1R
#140
0!
0=
0>
1'
#150
1!
1=
1>
0'
1$"
0&"
0'"
0%"
0G
0R
1E
1C
0B
14
0F
15
1Q
05
0C
1G
1R
0Q
#160
0!
0=
0>
1'
#170
1!
1=
1>
0'
1'"
1B
04
1C
#180
0!
0=
0>
1'
#190
1!
1=
1>
0'
1&"
0'"
0E
0C
0B
14
15
1E
1C
05
#200
0!
0=
0>
1'
#210
1!
1=
1>
0'
1'"
1B
04
0E
0C
15
#220
0!
0=
0>
1'
#230
1!
1=
1>
0'
0&"
0'"
1%"
1E
1C
0B
14
1F
05
0F
15
0C
0G
0R
1G
1R
1Q
0Q
#240
0!
0=
0>
1'
#250
1!
1=
1>
0'
1'"
1B
04
1C
#260
0!
0=
0>
1'
#270
1!
1=
1>
0'
1&"
0'"
0E
0C
0B
14
1F
05
1E
1C
0G
0R
0F
15
1Q
1G
1R
0Q
#280
0!
0=
0>
1'
#290
1!
1=
1>
0'
1'"
1B
04
0E
0C
1F
05
0G
0R
1Q
#300
0!
0=
0>
1'
#310
1!
1=
1>
0'
0$"
1#"
0&"
0'"
0%"
1G
1R
1H
0Q
1E
1C
0B
14
0F
15
0H
1Q
1I
05
0C
0R
0I
#320
0!
0=
0>
1'
#330
1!
1=
1>
0'
1'"
1B
04
1C
#340
0!
0=
0>
1'
#350
1!
1=
1>
0'
1&"
0'"
0E
0C
0B
14
15
1E
1C
05
#360
0!
0=
0>
1'
#370
1!
1=
1>
0'
1'"
1B
04
0E
0C
15
#380
0!
0=
0>
1'
#390
1!
1=
1>
0'
0&"
0'"
1%"
1E
1C
0B
14
1F
05
0F
15
0C
1R
0R
#400
0!
0=
0>
1'
#410
1!
1=
1>
0'
1'"
1B
04
1C
#420
0!
0=
0>
1'
#430
1!
1=
1>
0'
1&"
0'"
0E
0C
0B
14
1F
05
1E
1C
1R
0F
15
0R
#440
0!
0=
0>
1'
#450
1!
1=
1>
0'
1'"
1B
04
0E
0C
1F
05
1R
#460
0!
0=
0>
1'
#470
1!
1=
1>
0'
1$"
0&"
0'"
0%"
0S
0G
0R
1E
1C
0B
14
0F
15
0T
1H
0Q
05
0C
1G
1R
1U!
1y
1I
0H
1Q
1V!
0I
#480
0!
0=
0>
1'
#490
1!
1=
1>
0'
1W!
1{!
0$"
0#"
0V!
1U
06!
1S
0R
0Q
1#
1V
07!
1T
1W
0U!
0y
1V!
#500
0!
0=
0>
1'
#510
1!
1=
1>
0'
1'"
1B
04
1C
#520
0!
0=
0>
1'
#530
1!
1=
1>
0'
1&"
0'"
0E
0C
0B
14
15
1E
1C
05
#540
0!
0=
0>
1'
#550
1!
1=
1>
0'
1'"
1B
04
0E
0C
15
#560
0!
0=
0>
1'
#570
1!
1=
1>
0'
0&"
0'"
1%"
1E
1C
0B
14
1F
05
0F
15
0C
1R
0R
#580
0!
0=
0>
1'
#590
1!
1=
1>
0'
1'"
1B
04
1C
#600
0!
0=
0>
1'
#610
1!
1=
1>
0'
1&"
0'"
0E
0C
0B
14
1F
05
1E
1C
1R
0F
15
0R
#620
0!
0=
0>
1'
#630
1!
1=
1>
0'
1'"
1B
04
0E
0C
1F
05
1R
#640
0!
0=
0>
1'
#650
1!
1=
1>
0'
1$"
0&"
0'"
0%"
0G
0R
1E
1C
0B
14
0F
15
1Q
05
0C
1G
1R
0Q
#660
0!
0=
0>
1'
#670
1!
1=
1>
0'
1'"
1B
04
1C
#680
0!
0=
0>
1'
#690
1!
1=
1>
0'
1&"
0'"
0E
0C
0B
14
15
1E
1C
05
#700
0!
0=
0>
1'
#710
1!
1=
1>
0'
1'"
1B
04
0E
0C
15
#720
0!
0=
0>
1'
#730
1!
1=
1>
0'
0&"
0'"
1%"
1E
1C
0B
14
1F
05
0F
15
0C
0G
0R
1G
1R
1Q
0Q
#740
0!
0=
0>
1'
#750
1!
1=
1>
0'
1'"
1B
04
1C
#760
0!
0=
0>
1'
#770
1!
1=
1>
0'
1&"
0'"
0E
0C
0B
14
1F
05
1E
1C
0G
0R
0F
15
1Q
1G
1R
0Q
#780
0!
0=
0>
1'
#790
1!
1=
1>
0'
1'"
1B
04
0E
0C
1F
05
0G
0R
1Q
#800
0!
0=
0>
1'
#810
1!
1=
1>
0'
0$"
1#"
0&"
0'"
0%"
1G
1R
1H
0Q
1E
1C
0B
14
0F
15
0H
1Q
1I
05
0C
0R
0I
#820
0!
0=
0>
1'
#830
1!
1=
1>
0'
1'"
1B
04
1C
#840
0!
0=
0>
1'
#850
1!
1=
1>
0'
1&"
0'"
0E
0C
0B
14
15
1E
1C
05
#860
0!
0=
0>
1'
#870
1!
1=
1>
0'
1'"
1B
04
0E
0C
15
#880
0!
0=
0>
1'
#890
1!
1=
1>
0'
0&"
0'"
1%"
1E
1C
0B
14
1F
05
0F
15
0C
1R
0R
#900
0!
0=
0>
1'
#910
1!
1=
1>
0'
1'"
1B
04
1C
#920
0!
0=
0>
1'
#930
1!
1=
1>
0'
1&"
0'"
0E
0C
0B
14
1F
05
1E
1C
1R
0F
15
0R
#940
0!
0=
0>
1'
#950
1!
1=
1>
0'
1'"
1B
04
0E
0C
1F
05
1R
#960
0!
0=
0>
1'
#970
1!
1=
1>
0'
1$"
0&"
0'"
0%"
0S
0G
0R
1E
1C
0B
14
0F
15
0T
1H
0Q
05
0C
1G
1R
1U!
1y
1I
0H
1Q
0V!
0I
#980
0!
0=
0>
1'
#990
1!
1=
1>
0'
0W!
0{!
1z!
0$"
0#"
1V!
0U
16!
0z
0V
1S
0R
0Q
0#
1z
1V
17!
1{
0W
1T
0{
1W
1|
0U!
0y
0|
0V!
#1000
0!
0=
0>
1'
#1010
1!
1=
1>
0'
1'"
1B
04
1C
#1020
0!
0=
0>
1'
#1030
1!
1=
1>
0'
1&"
0'"
0E
0C
0B
14
15
1E
1C
05
#1040
0!
0=
0>
1'
#1050
1!
1=
1>
0'
1'"
1B
04
0E
0C
15
#1060
0!
0=
0>
1'
#1070
1!
1=
1>
0'
0&"
0'"
1%"
1E
1C
0B
14
1F
05
0F
15
0C
1R
0R
#1080
0!
0=
0>
1'
#1090
1!
1=
1>
0'
1'"
1B
04
1C
#1100
0!
0=
0>
1'
#1110
1!
1=
1>
0'
1&"
0'"
0E
0C
0B
14
1F
05
1E
1C
1R
0F
15
0R
#1120
0!
0=
0>
1'
#1130
1!
1=
1>
0'
1'"
1B
04
0E
0C
1F
05
1R
#1140
0!
0=
0>
1'
#1150
1!
1=
1>
0'
1$"
0&"
0'"
0%"
0G
0R
1E
1C
0B
14
0F
15
1Q
05
0C
1G
1R
0Q
#1160
0!
0=
0>
1'
#1170
1!
1=
1>
0'
1'"
1B
04
1C
#1180
0!
0=
0>
1'
#1190
1!
1=
1>
0'
1&"
0'"
0E
0C
0B
14
15
1E
1C
05
#1200
0!
0=
0>
1'
#1210
1!
1=
1>
0'
1'"
1B
04
0E
0C
15
#1220
0!
0=
0>
1'
#1230
1!
1=
1>
0'
0&"
0'"
1%"
1E
1C
0B
14
1F
05
0F
15
0C
0G
0R
1G
1R
1Q
0Q
#1240
0!
0=
0>
1'
#1250
1!
1=
1>
0'
1'"
1B
04
1C
#1260
0!
0=
0>
1'
#1270
1!
1=
1>
0'
1&"
0'"
0E
0C
0B
14
1F
05
1E
1C
0G
0R
0F
15
1Q
1G
1R
0Q
#1280
0!
0=
0>
1'
#1290
1!
1=
1>
0'
1'"
1B
04
0E
0C
1F
05
0G
0R
1Q
#1300
0!
0=
0>
1'
#1310
1!
1=
1>
0'
0$"
1#"
0&"
0'"
0%"
1G
1R
1H
0Q
1E
1C
0B
14
0F
15
0H
1Q
1I
05
0C
0R
0I
#1320
0!
0=
0>
1'
#1330
1!
1=
1>
0'
1'"
1B
04
1C
#1340
0!
0=
0>
1'
#1350
1!
1=
1>
0'
1&"
0'"
0E
0C
0B
14
15
1E
1C
05
#1360
0!
0=
0>
1'
#1370
1!
1=
1>
0'
1'"
1B
04
0E
0C
15
#1380
0!
0=
0>
1'
#1390
1!
1=
1>
0'
0&"
0'"
1%"
1E
1C
0B
14
1F
05
0F
15
0C
1R
0R
#1400
0!
0=
0>
1'
#1410
1!
1=
1>
0'
1'"
1B
04
1C
#1420
0!
0=
0>
1'
#1430
1!
1=
1>
0'
1&"
0'"
0E
0C
0B
14
1F
05
1E
1C
1R
0F
15
0R
#1440
0!
0=
0>
1'
#1450
1!
1=
1>
0'
1'"
1B
04
0E
0C
1F
05
1R
#1460
0!
0=
0>
1'
#1470
1!
1=
1>
0'
1$"
0&"
0'"
0%"
0S
0G
0R
1E
1C
0B
14
0F
15
0T
1H
0Q
05
0C
1G
1R
1U!
1y
1I
0H
1Q
1V!
0I
#1480
0!
0=
0>
1'
#1490
1!
1=
1>
0'
1W!
1{!
0$"
0#"
0V!
1U
06!
1S
0R
0Q
1#
0z
0V
07!
1T
1{
0W
0U!
0y
1|
1V!
#1500
0!
0=
0>
1'
#1510
1!
1=
1>
0'
1'"
1B
04
1C
#1520
0!
0=
0>
1'
#1530
1!
1=
1>
0'
1&"
0'"
0E
0C
0B
14
15
1E
1C
05
#1540
0!
0=
0>
1'
#1550
1!
1=
1>
0'
1'"
1B
04
0E
0C
15
#1560
0!
0=
0>
1'
#1570
1!
1=
1>
0'
0&"
0'"
1%"
1E
1C
0B
14
1F
05
0F
15
0C
1R
0R
#1580
0!
0=
0>
1'
#1590
1!
1=
1>
0'
1'"
1B
04
1C
#1600
0!
0=
0>
1'
#1610
1!
1=
1>
0'
1&"
0'"
0E
0C
0B
14
1F
05
1E
1C
1R
0F
15
0R
#1620
0!
0=
0>
1'
#1630
1!
1=
1>
0'
1'"
1B
04
0E
0C
1F
05
1R
#1640
0!
0=
0>
1'
#1650
1!
1=
1>
0'
1$"
0&"
0'"
0%"
0G
0R
1E
1C
0B
14
0F
15
1Q
05
0C
1G
1R
0Q
#1660
0!
0=
0>
1'
#1670
1!
1=
1>
0'
1'"
1B
04
1C
#1680
0!
0=
0>
1'
#1690
1!
1=
1>
0'
1&"
0'"
0E
0C
0B
14
15
1E
1C
05
#1700
0!
0=
0>
1'
#1710
1!
1=
1>
0'
1'"
1B
04
0E
0C
15
#1720
0!
0=
0>
1'
#1730
1!
1=
1>
0'
0&"
0'"
1%"
1E
1C
0B
14
1F
05
0F
15
0C
0G
0R
1G
1R
1Q
0Q
#1740
0!
0=
0>
1'
#1750
1!
1=
1>
0'
1'"
1B
04
1C
#1760
0!
0=
0>
1'
#1770
1!
1=
1>
0'
1&"
0'"
0E
0C
0B
14
1F
05
1E
1C
0G
0R
0F
15
1Q
1G
1R
0Q
#1780
0!
0=
0>
1'
#1790
1!
1=
1>
0'
1'"
1B
04
0E
0C
1F
05
0G
0R
1Q
#1800
0!
0=
0>
1'
#1810
1!
1=
1>
0'
0$"
1#"
0&"
0'"
0%"
1G
1R
1H
0Q
1E
1C
0B
14
0F
15
0H
1Q
1I
05
0C
0R
0I
#1820
0!
0=
0>
1'
#1830
1!
1=
1>
0'
1'"
1B
04
1C
#1840
0!
0=
0>
1'
#1850
1!
1=
1>
0'
1&"
0'"
0E
0C
0B
14
15
1E
1C
05
#1860
0!
0=
0>
1'
#1870
1!
1=
1>
0'
1'"
1B
04
0E
0C
15
#1880
0!
0=
0>
1'
#1890
1!
1=
1>
0'
0&"
0'"
1%"
1E
1C
0B
14
1F
05
0F
15
0C
1R
0R
#1900
0!
0=
0>
1'
#1910
1!
1=
1>
0'
1'"
1B
04
1C
#1920
0!
0=
0>
1'
#1930
1!
1=
1>
0'
1&"
0'"
0E
0C
0B
14
1F
05
1E
1C
1R
0F
15
0R
#1940
0!
0=
0>
1'
#1950
1!
1=
1>
0'
1'"
1B
04
0E
0C
1F
05
1R
#1960
0!
0=
0>
1'
#1970
1!
1=
1>
0'
1$"
0&"
0'"
0%"
0S
0G
0R
1E
1C
0B
14
0F
15
0T
1H
0Q
05
0C
1G
1R
1U!
1y
1I
0H
1Q
0V!
0I
#1980
0!
0=
0>
1'
#1990
1!
1=
1>
0'
0W!
0{!
1y!
0z!
0$"
0#"
1V!
0U
16!
1}
0{
1z
1V
1S
0R
0Q
0#
0V
17!
1~
0|
0}
1{
1W
1T
0W
0~
1|
0U!
0y
0V!
#2000
0!
0=
0>
1'
#2010
1!
1=
1>
0'
1'"
1B
04
1C
#2020
0!
0=
0>
1'
#2030
1!
1=
1>
0'
1&"
0'"
0E
0C
0B
14
15
1E
1C
05
#2040
0!
0=
0>
1'
#2050
1!
1=
1>
0'
1'"
1B
04
0E
0C
15
#2060
0!
0=
0>
1'
#2070
1!
1=
1>
0'
0&"
0'"
1%"
1E
1C
0B
14
1F
05
0F
15
0C
1R
0R
#2080
0!
0=
0>
1'
#2090
1!
1=
1>
0'
1'"
1B
04
1C
#2100
0!
0=
0>
1'
#2110
1!
1=
1>
0'
1&"
0'"
0E
0C
0B
14
1F
05
1E
1C
1R
0F
15
0R
#2120
0!
0=
0>
1'
#2130
1!
1=
1>
0'
1'"
1B
04
0E
0C
1F
05
1R
#2140
0!
0=
0>
1'
#2150
1!
1=
1>
0'
1$"
0&"
0'"
0%"
0G
0R
1E
1C
0B
14
0F
15
1Q
05
0C
1G
1R
0Q
#2160
0!
0=
0>
1'
#2170
1!
1=
1>
0'
1'"
1B
04
1C
#2180
0!
0=
0>
1'
#2190
1!
1=
1>
0'
1&"
0'"
0E
0C
0B
14
15
1E
1C
05
#2200
0!
0=
0>
1'
#2210
1!
1=
1>
0'
1'"
1B
04
0E
0C
15
#2220
0!
0=
0>
1'
#2230
1!
1=
1>
0'
0&"
0'"
1%"
1E
1C
0B
14
1F
05
0F
15
0C
0G
0R
1G
1R
1Q
0Q
#2240
0!
0=
0>
1'
#2250
1!
1=
1>
0'
1'"
1B
04
1C
#2260
0!
0=
0>
1'
#2270
1!
1=
1>
0'
1&"
0'"
0E
0C
0B
14
1F
05
1E
1C
0G
0R
0F
15
1Q
1G
1R
0Q
#2280
0!
0=
0>
1'
#2290
1!
1=
1>
0'
1'"
1B
04
0E
0C
1F
05
0G
0R
1Q
#2300
0!
0=
0>
1'
#2310
1!
1=
1>
0'
0$"
1#"
0&"
0'"
0%"
1G
1R
1H
0Q
1E
1C
0B
14
0F
15
0H
1Q
1I
05
0C
0R
0I
#2320
0!
0=
0>
1'
#2330
1!
1=
1>
0'
1'"
1B
04
1C
#2340
0!
0=
0>
1'
#2350
1!
1=
1>
0'
1&"
0'"
0E
0C
0B
14
15
1E
1C
05
#2360
0!
0=
0>
1'
#2370
1!
1=
1>
0'
1'"
1B
04
0E
0C
15
#2380
0!
0=
0>
1'
#2390
1!
1=
1>
0'
0&"
0'"
1%"
1E
1C
0B
14
1F
05
0F
15
0C
1R
0R
#2400
0!
0=
0>
1'
#2410
1!
1=
1>
0'
1'"
1B
04
1C
#2420
0!
0=
0>
1'
#2430
1!
1=
1>
0'
1&"
0'"
0E
0C
0B
14
1F
05
1E
1C
1R
0F
15
0R
#2440
0!
0=
0>
1'
#2450
1!
1=
1>
0'
1'"
1B
04
0E
0C
1F
05
1R
#2460
0!
0=
0>
1'
#2470
1!
1=
1>
0'
1$"
0&"
0'"
0%"
0S
0G
0R
1E
1C
0B
14
0F
15
0T
1H
0Q
05
0C
1G
1R
1U!
1y
1I
0H
1Q
1V!
0I
#2480
0!
0=
0>
1'
#2490
1!
1=
1>
0'
1W!
1{!
0$"
0#"
0V!
1U
06!
1S
0R
0Q
1#
1V
07!
1T
1W
0U!
0y
1V!
#2500
0!
0=
0>
1'
#2510
1!
1=
1>
0'
1'"
1B
04
1C
#2520
0!
0=
0>
1'
#2530
1!
1=
1>
0'
1&"
0'"
0E
0C
0B
14
15
1E
1C
05
#2540
0!
0=
0>
1'
#2550
1!
1=
1>
0'
1'"
1B
04
0E
0C
15
#2560
0!
0=
0>
1'
#2570
1!
1=
1>
0'
0&"
0'"
1%"
1E
1C
0B
14
1F
05
0F
15
0C
1R
0R
#2580
0!
0=
0>
1'
#2590
1!
1=
1>
0'
1'"
1B
04
1C
#2600
0!
0=
0>
1'
#2610
1!
1=
1>
0'
1&"
0'"
0E
0C
0B
14
1F
05
1E
1C
1R
0F
15
0R
#2620
0!
0=
0>
1'
#2630
1!
1=
1>
0'
1'"
1B
04
0E
0C
1F
05
1R
#2640
0!
0=
0>
1'
#2650
1!
1=
1>
0'
1$"
0&"
0'"
0%"
0G
0R
1E
1C
0B
14
0F
15
1Q
05
0C
1G
1R
0Q
#2660
0!
0=
0>
1'
#2670
1!
1=
1>
0'
1'"
1B
04
1C
#2680
0!
0=
0>
1'
#2690
1!
1=
1>
0'
1&"
0'"
0E
0C
0B
14
15
1E
1C
05
#2700
0!
0=
0>
1'
#2710
1!
1=
1>
0'
1'"
1B
04
0E
0C
15
#2720
0!
0=
0>
1'
#2730
1!
1=
1>
0'
0&"
0'"
1%"
1E
1C
0B
14
1F
05
0F
15
0C
0G
0R
1G
1R
1Q
0Q
#2740
0!
0=
0>
1'
#2750
1!
1=
1>
0'
1'"
1B
04
1C
#2760
0!
0=
0>
1'
#2770
1!
1=
1>
0'
1&"
0'"
0E
0C
0B
14
1F
05
1E
1C
0G
0R
0F
15
1Q
1G
1R
0Q
#2780
0!
0=
0>
1'
#2790
1!
1=
1>
0'
1'"
1B
04
0E
0C
1F
05
0G
0R
1Q
#2800
0!
0=
0>
1'
#2810
1!
1=
1>
0'
0$"
1#"
0&"
0'"
0%"
1G
1R
1H
0Q
1E
1C
0B
14
0F
15
0H
1Q
1I
05
0C
0R
0I
#2820
0!
0=
0>
1'
#2830
1!
1=
1>
0'
1'"
1B
04
1C
#2840
0!
0=
0>
1'
#2850
1!
1=
1>
0'
1&"
0'"
0E
0C
0B
14
15
1E
1C
05
#2860
0!
0=
0>
1'
#2870
1!
1=
1>
0'
1'"
1B
04
0E
0C
15
#2880
0!
0=
0>
1'
#2890
1!
1=
1>
0'
0&"
0'"
1%"
1E
1C
0B
14
1F
05
0F
15
0C
1R
0R
#2900
0!
0=
0>
1'
#2910
1!
1=
1>
0'
1'"
1B
04
1C
#2920
0!
0=
0>
1'
#2930
1!
1=
1>
0'
1&"
0'"
0E
0C
0B
14
1F
05
1E
1C
1R
0F
15
0R
#2940
0!
0=
0>
1'
#2950
1!
1=
1>
0'
1'"
1B
04
0E
0C
1F
05
1R
#2960
0!
0=
0>
1'
#2970
1!
1=
1>
0'
1$"
0&"
0'"
0%"
0S
0G
0R
1E
1C
0B
14
0F
15
0T
1H
0Q
05
0C
1G
1R
1U!
1y
1I
0H
1Q
0V!
0I
#2980
0!
0=
0>
1'
#2990
1!
1=
1>
0'
0W!
0{!
1z!
0$"
0#"
1V!
0U
16!
0z
0V
1S
0R
0Q
0#
1z
1V
17!
1}
0{
0W
1T
0}
1{
1W
1~
0|
0U!
0y
0~
1|
0V!
#3000
0!
0=
0>
1'
#3010
1!
1=
1>
0'
1'"
1B
04
1C
#3020
0!
0=
0>
1'
#3030
1!
1=
1>
0'
1&"
0'"
0E
0C
0B
14
15
1E
1C
05
#3040
0!
0=
0>
1'
#3050
1!
1=
1>
0'
1'"
1B
04
0E
0C
15
#3060
0!
0=
0>
1'
#3070
1!
1=
1>
0'
0&"
0'"
1%"
1E
1C
0B
14
1F
05
0F
15
0C
1R
0R
#3080
0!
0=
0>
1'
#3090
1!
1=
1>
0'
1'"
1B
04
1C
#3100
0!
0=
0>
1'
#3110
1!
1=
1>
0'
1&"
0'"
0E
0C
0B
14
1F
05
1E
1C
1R
0F
15
0R
#3120
0!
0=
0>
1'
#3130
1!
1=
1>
0'
1'"
1B
04
0E
0C
1F
05
1R
#3140
0!
0=
0>
1'
#3150
1!
1=
1>
0'
1$"
0&"
0'"
0%"
0G
0R
1E
1C
0B
14
0F
15
1Q
05
0C
1G
1R
0Q
#3160
0!
0=
0>
1'
#3170
1!
1=
1>
0'
1'"
1B
04
1C
#3180
0!
0=
0>
1'
